Datenanalyse
…
]

.panel[.panel-name[Daten anschauen]

```r
d3
```

```
## # A tibble: 5,184 x 4
##    id    angle    rt accuracy
##    <fct> <dbl> <dbl>    <dbl>
##  1 1         0  1355        1
##  2 1       150  2079        1
##  3 1       150  1834        1
##  4 1       100  4780        1
##  5 1        50  1685        1
##  6 1        50  1237        1
##  7 1       100  2961        1
##  8 1         0  1275        1
##  9 1       150  4716        1
## 10 1       150  3794        0
## # … with 5,174 more rows
```
…
d3sum <- acc %>% 
  left_join(rts) %>% 
  mutate(angle = as_factor(angle))  
```
]

.panel[.panel-name[Level 1 Daten]

```r
d3sum
```

```
## # A tibble: 216 x 4
## # Groups:   id [54]
##    id    angle accuracy    rt
##    <fct> <fct>    <dbl> <dbl>
##  1 1     0         1    1512.
##  2 1     50        0.83 1977.
##  3 1     100       0.83 2771.
##  4 1     150       0.88 2931.
##  5 2     0         1    1939.
##  6 2     50        0.88 3044.
##  7 2     100       0.71 4740.
##  8 2     150       0.54 3927.
##  9 3     0         1    1808.
## 10 3     50        1    2689.
## # … with 206 more rows
```
…
