Neurowissenschaft Computerlab - Daten bearbeiten und zusammenfassen
…
Binary Choices

Pro Versuchsperson

data

# A tibble: 1,440 × 9
   trial ID    cue   direction response    rt choice correct condition
   <dbl> <fct> <fct> <fct>        <dbl> <dbl> <fct>    <dbl> <fct>    
 1     0 JH    right right            1 0.714 right        1 valid    
 2     1 JH    right right            1 0.627 right        1 valid    
 3     2 JH    none  right            0 0.670 left         0 neutral  
 4     3 JH    none  right            1 0.574 right        1 neutral  
 5     4 JH    left  left             1 0.841 right        0 valid    
 6     5 JH    none  right            1 0.668 right        1 neutral  
 7     6 JH    none  left             1 1.12  right        0 neutral  
 8     7 JH    left  left             0 0.640 left         1 valid    
 9     8 JH    left  right            0 1.13  left         0 invalid  
10     9 JH    none  right            1 1.03  right        1 neutral  
# … with 1,430 more rows

data |> 
  group_by(ID, condition)

# A tibble: 1,440 × 9
# Groups:   ID, condition [27]
   trial ID    cue   direction response    rt choice correct condition
   <dbl> <fct> <fct> <fct>        <dbl> <dbl> <fct>    <dbl> <fct>    
 1     0 JH    right right            1 0.714 right        1 valid    
 2     1 JH    right right            1 0.627 right        1 valid    
 3     2 JH    none  right            0 0.670 left         0 neutral  
 4     3 JH    none  right            1 0.574 right        1 neutral  
 5     4 JH    left  left             1 0.841 right        0 valid    
 6     5 JH    none  right            1 0.668 right        1 neutral  
 7     6 JH    none  left             1 1.12  right        0 neutral  
 8     7 JH    left  left             0 0.640 left         1 valid    
 9     8 JH    left  right            0 1.13  left         0 invalid  
10     9 JH    none  right            1 1.03  right        1 neutral  
# … with 1,430 more rows

accuracy <- data |>
    group_by(ID, condition) |>
    summarise(N = n(),
              ncorrect = sum(correct),
              accuracy = mean(correct))

accuracy

# A tibble: 27 × 5
# Groups:   ID [9]
   ID    condition     N ncorrect accuracy
   <fct> <fct>     <int>    <dbl>    <dbl>
 1 JH    invalid      16       13   0.812 
 2 JH    neutral      80       66   0.825 
 3 JH    valid        64       60   0.938 
 4 NS    invalid      16       11   0.688 
 5 NS    neutral      80       56   0.7   
 6 NS    valid        64       58   0.906 
 7 rh    invalid      16        2   0.125 
 8 rh    neutral      80       64   0.8   
 9 rh    valid        64       61   0.953 
10 sb    invalid      16        1   0.0625
# … with 17 more rows
…
Pro Versuchsperson

Wir fassen die Daten pro Person pro Block mit Mittelwert, Median und Standarabweichung zusammen.

funs <- list(mean = mean, median = median, sd = sd)

by_subj <- data %>%
  drop_na(rt) |> 
  group_by(ID, condition) %>% 
  dplyr::summarise(across(rt, funs, .names = "{.fn}"))

by_subj 

# A tibble: 27 × 5
# Groups:   ID [9]
   ID    condition  mean median     sd
   <fct> <fct>     <dbl>  <dbl>  <dbl>
 1 JH    invalid   0.775  0.739 0.163 
 2 JH    neutral   0.799  0.733 0.202 
 3 JH    valid     0.696  0.658 0.190 
 4 NS    invalid   0.894  0.913 0.207 
 5 NS    neutral   0.885  0.844 0.201 
 6 NS    valid     0.738  0.715 0.191 
 7 rh    invalid   0.423  0.389 0.151 
 8 rh    neutral   0.525  0.503 0.0841
 9 rh    valid     0.443  0.390 0.185 
10 sb    invalid   0.376  0.341 0.0924
# … with 17 more rows
…
