Neurowissenschaft Computerlab - Signal Detection Theory: I
…
library(sdtalt)
library(tidyverse)

data(confcontr)

confcontr <- as_tibble(confcontr) |> 
  mutate(subno = as_factor(subno),
         item = isold - 0.5)

confcontr

# A tibble: 3,100 × 4
   subno sayold isold  item
   <fct>  <dbl> <dbl> <dbl>
 1 53         1     0  -0.5
 2 53         1     1   0.5
 3 53         1     1   0.5
 4 53         1     1   0.5
 5 53         1     0  -0.5
 6 53         1     1   0.5
 7 53         1     0  -0.5
 8 53         0     0  -0.5
 9 53         0     1   0.5
10 53         0     1   0.5
# … with 3,090 more rows
…
The second function provides a minor correction in case we have hit or false alarm rates of either 0 or 1. Since a rate \(r\) is a relative frequency, which we interpret as a probability, it must lie within the range 0:1: \(0 < r < 1\). The function adds or subtracts a small number, depending on whether the rate is \(0\) or \(1\). In this case, neither function is necessary; we apply them anyway, for demonstration.

correct_zero_one <- function(rate, e = 0.001) {
    if (identical(rate, 0)) {
        rate = rate + e
    } else if (identical(rate, 1)) {
        rate = rate - e
    }
    rate
}

sdt_summary

# A tibble: 31 × 5
# Groups:   subno [31]
   subno    CR    FA   Hit  Miss
   <fct> <int> <int> <int> <int>
 1 53       33    20    25    22
 2 54       39    14    28    19
 3 55       36    17    31    16
 4 56       43    10    38     9
 5 57       35    18    29    18
 6 58       41    12    30    17
 7 59       46     7    21    26
 8 60       38    15    33    14
 9 61       42    11    25    22
10 62       45     8    22    25
# … with 21 more rows

sdt_summary <- sdt_summary |>
    mutate(across(c(Hit, Miss, FA, CR), replace_NA))

sdt_summary

# A tibble: 31 × 5
# Groups:   subno [31]
   subno    CR    FA   Hit  Miss
   <fct> <int> <int> <int> <int>
 1 53       33    20    25    22
 2 54       39    14    28    19
 3 55       36    17    31    16
 4 56       43    10    38     9
 5 57       35    18    29    18
 6 58       41    12    30    17
 7 59       46     7    21    26
 8 60       38    15    33    14
 9 61       42    11    25    22
10 62       45     8    22    25
# … with 21 more rows

Next, we estimate the hit and false alarm rates, based on the observed number of hits and false alarms.

sdt_summary <- sdt_summary |>
    mutate(hit_rate = Hit/(Hit + Miss),
           fa_rate = FA/(FA + CR))
sdt_summary

# A tibble: 31 × 7
# Groups:   subno [31]
   subno    CR    FA   Hit  Miss hit_rate fa_rate
   <fct> <int> <int> <int> <int>    <dbl>   <dbl>
 1 53       33    20    25    22    0.532   0.377
 2 54       39    14    28    19    0.596   0.264
 3 55       36    17    31    16    0.660   0.321
 4 56       43    10    38     9    0.809   0.189
 5 57       35    18    29    18    0.617   0.340
 6 58       41    12    30    17    0.638   0.226
 7 59       46     7    21    26    0.447   0.132
 8 60       38    15    33    14    0.702   0.283
 9 61       42    11    25    22    0.532   0.208
10 62       45     8    22    25    0.468   0.151
# … with 21 more rows

sdt_summary <- sdt_summary |>
    mutate(across(c(hit_rate, fa_rate), correct_zero_one))
sdt_summary

# A tibble: 31 × 7
# Groups:   subno [31]
   subno    CR    FA   Hit  Miss hit_rate fa_rate
   <fct> <int> <int> <int> <int>    <dbl>   <dbl>
 1 53       33    20    25    22    0.532   0.377
 2 54       39    14    28    19    0.596   0.264
 3 55       36    17    31    16    0.660   0.321
 4 56       43    10    38     9    0.809   0.189
 5 57       35    18    29    18    0.617   0.340
 6 58       41    12    30    17    0.638   0.226
 7 59       46     7    21    26    0.447   0.132
 8 60       38    15    33    14    0.702   0.283
 9 61       42    11    25    22    0.532   0.208
10 62       45     8    22    25    0.468   0.151
# … with 21 more rows

Given the hit and false alarm rates, we can calculate the value on the latent strength variable that must result in the hit and false alarm rate.

sdt_summary <- sdt_summary |> 
  mutate(zhr = qnorm(hit_rate),
           zfa = qnorm(fa_rate))
sdt_summary

# A tibble: 31 × 9
# Groups:   subno [31]
   subno    CR    FA   Hit  Miss hit_rate fa_rate     zhr    zfa
   <fct> <int> <int> <int> <int>    <dbl>   <dbl>   <dbl>  <dbl>
 1 53       33    20    25    22    0.532   0.377  0.0801 -0.312
 2 54       39    14    28    19    0.596   0.264  0.242  -0.631
 3 55       36    17    31    16    0.660   0.321  0.411  -0.466
 4 56       43    10    38     9    0.809   0.189  0.872  -0.883
 5 57       35    18    29    18    0.617   0.340  0.298  -0.413
 6 58       41    12    30    17    0.638   0.226  0.354  -0.751
 7 59       46     7    21    26    0.447   0.132 -0.134  -1.12 
 8 60       38    15    33    14    0.702   0.283  0.531  -0.574
 9 61       42    11    25    22    0.532   0.208  0.0801 -0.815
10 62       45     8    22    25    0.468   0.151 -0.0801 -1.03 
# … with 21 more rows

Finally, we compute \(d'\), \(k\) and \(c\) using the formulae given above.

sdt_summary <- sdt_summary |> 
  mutate(dprime = zhr - zfa,
         k = -zfa,
         c = -0.5 * (zhr + zfa)) |>
    mutate(across(c(dprime, k, c), round, 2))

sdt_summary

# A tibble: 31 × 12
# Groups:   subno [31]
   subno    CR    FA   Hit  Miss hit_rate fa_rate     zhr    zfa dprime     k
   <fct> <int> <int> <int> <int>    <dbl>   <dbl>   <dbl>  <dbl>  <dbl> <dbl>
 1 53       33    20    25    22    0.532   0.377  0.0801 -0.312   0.39  0.31
 2 54       39    14    28    19    0.596   0.264  0.242  -0.631   0.87  0.63
 3 55       36    17    31    16    0.660   0.321  0.411  -0.466   0.88  0.47
 4 56       43    10    38     9    0.809   0.189  0.872  -0.883   1.76  0.88
 5 57       35    18    29    18    0.617   0.340  0.298  -0.413   0.71  0.41
 6 58       41    12    30    17    0.638   0.226  0.354  -0.751   1.1   0.75
 7 59       46     7    21    26    0.447   0.132 -0.134  -1.12    0.98  1.12
 8 60       38    15    33    14    0.702   0.283  0.531  -0.574   1.1   0.57
 9 61       42    11    25    22    0.532   0.208  0.0801 -0.815   0.9   0.81
10 62       45     8    22    25    0.468   0.151 -0.0801 -1.03    0.95  1.03
# … with 21 more rows, and 1 more variable: c <dbl>
…
