Neurowissenschaft Computerlab - Signal Detection Theory: II
…
Trials klassifizieren

Als Hit, Miss, CR und FA.

sdt <- d |>
    mutate(type = case_when(
        direction == "___" & choice == "___" ~ "___"),
        ___,
        ___,
        ___)

sdt

# A tibble: 2,362 × 6
   ID     condition cue   direction choice type 
   <fct>  <fct>     <fct> <fct>     <fct>  <chr>
 1 chch04 valid     left  left      left   CR   
 2 chch04 valid     left  left      left   CR   
 3 chch04 valid     left  left      right  FA   
 4 chch04 invalid   right left      left   CR   
 5 chch04 neutral   none  left      left   CR   
 6 chch04 valid     left  left      left   CR   
 7 chch04 invalid   right left      left   CR   
 8 chch04 valid     left  left      left   CR   
 9 chch04 neutral   none  left      left   CR   
10 chch04 neutral   none  right     left   Miss 
# … with 2,352 more rows

SDT Kennzahlen zusammenzählen

sdt_summary <- sdt |>
    group_by(ID, cue) |>
    count(type)

sdt_summary

# A tibble: 170 × 4
# Groups:   ID, cue [45]
   ID     cue   type      n
   <fct>  <fct> <chr> <int>
 1 chch04 left  CR       29
 2 chch04 left  FA        3
 3 chch04 left  Hit       7
 4 chch04 left  Miss      1
 5 chch04 none  CR       38
 6 chch04 none  FA        2
 7 chch04 none  Hit      34
 8 chch04 none  Miss      6
 9 chch04 right CR        5
10 chch04 right FA        3
# … with 160 more rows

Von wide zu long konvertieren

sdt_summary <- sdt_summary |>
    pivot_wider(names_from = type, values_from = n)

sdt_summary

# A tibble: 45 × 6
# Groups:   ID, cue [45]
   ID     cue      CR    FA   Hit  Miss
   <fct>  <fct> <int> <int> <int> <int>
 1 chch04 left     29     3     7     1
 2 chch04 none     38     2    34     6
 3 chch04 right     5     3    25     7
 4 chmi14 left     21    10     5     3
 5 chmi14 none     18    19    29     7
 6 chmi14 right     3     4    26     4
 7 J      left     19    12     5     3
 8 J      none     23    16    33     6
 9 J      right     6     2    20    12
10 jh     left     32    NA     5     3
# … with 35 more rows
…
