Neurowissenschaft Computerlab - Reaktionszeiten: II
…
df_speed_acc <- speed_acc |> 
   # zwischen 180 ms and 3000 ms
  filter(rt > 0.18, rt < 3) |> 
   # zu Character konvertieren (damit filter funktioniert)
  mutate(across(c(stim_cat, response), as.character)) |> 
  # Korrekte Antworten
  filter(response != 'error', stim_cat == response) |> 
  # wieder zu Factor konvertieren
  mutate(across(c(stim_cat, response), as_factor))

df_speed_acc

# A tibble: 27,936 × 9
   id    block condition stim  stim_cat frequency   response    rt censor
   <fct> <fct> <fct>     <fct> <fct>    <fct>       <fct>    <dbl> <lgl> 
 1 1     1     speed     5015  nonword  nw_low      nonword  0.7   FALSE 
 2 1     1     speed     6481  nonword  nw_very_low nonword  0.46  FALSE 
 3 1     1     speed     3305  word     very_low    word     0.455 FALSE 
 4 1     1     speed     4468  nonword  nw_high     nonword  0.773 FALSE 
 5 1     1     speed     1047  word     high        word     0.39  FALSE 
 6 1     1     speed     5036  nonword  nw_low      nonword  0.603 FALSE 
 7 1     1     speed     1111  word     high        word     0.435 FALSE 
 8 1     1     speed     6561  nonword  nw_very_low nonword  0.524 FALSE 
 9 1     1     speed     1670  word     high        word     0.427 FALSE 
10 1     1     speed     6207  nonword  nw_very_low nonword  0.456 FALSE 
# … with 27,926 more rows
…
