Neurowissenschaft Computerlab - Data analysis: I
…
# Generate data
fancyhats = tibble(Creativity = rnorm(N_fancyhats, mu_fancyhats, sigma),
               Group = "Fancy Hat")

nofancyhats = tibble(Creativity = rnorm(N_nofancyhats, mu_nofancyhats, sigma),
                 Group = "No Fancy Hat")

FancyHat <- bind_rows(fancyhats, nofancyhats)  %>%
    mutate(Group = fct_relevel(as.factor(Group), "No Fancy Hat"))

FancyHat

# A tibble: 100 × 2
   Creativity Group    
        <dbl> <fct>    
 1       80.8 Fancy Hat
 2      127.  Fancy Hat
 3       88.6 Fancy Hat
 4       89.2 Fancy Hat
 5       73.0 Fancy Hat
 6       98.9 Fancy Hat
 7       98.3 Fancy Hat
 8       93.6 Fancy Hat
 9      101.  Fancy Hat
10      109.  Fancy Hat
# … with 90 more rows
…
