Neurowissenschaft Computerlab - Übung 3: Lösung
…
d_cleaned |>
    filter(trial_type != "OK")

# A tibble: 165 × 9
   subject condition signal_present correct     rt trial_num mean_C  sd_C
   <fct>   <fct>              <dbl>   <dbl>  <dbl>     <dbl>  <dbl> <dbl>
 1 2       bias                   0       1 4.08           1  0.697 0.751
 2 2       bias                   1       1 0.035         41  0.697 0.751
 3 2       bias                   0       1 6.92          50  0.697 0.751
 4 2       bias                   0       1 0.085         51  0.697 0.751
 5 2       bias                   0       1 0.033         70  0.697 0.751
 6 2       bias                   0       1 5.09          74  0.697 0.751
 7 2       bias                   0       1 6.59          94  0.697 0.751
 8 2       bias                   0       1 5.09         121  0.697 0.751
 9 2       bias                   1       1 0.077        138  0.697 0.751
10 3       no_bias                1       0 0.0958         4  0.691 0.773
# … with 155 more rows, and 1 more variable: trial_type <fct>
…
