neuroscicomplab: Datenanalyse
…
Wir laden zuerst die Daten, und zentrieren den Prädiktor set_size, um die Interpretation der Koeffizienten einfacher zu machen.

Wenn wir den Prädiktor zentrieren, können wir den Intercept interpretieren - das ist dann der Wert des linearen Prädiktors am Mittelwert von set_size.

library(tidyverse)

df_recall <- read_csv("https://raw.githubusercontent.com/kogpsy/neuroscicomplab/main/data/df_recall.csv")

df_recall <- df_recall %>%
  mutate(c_set_size = set_size - mean(set_size))

df_recall

# A tibble: 92 x 8
    subj set_size correct trial session block tested c_set_size
   <dbl>    <dbl>   <dbl> <dbl>   <dbl> <dbl>  <dbl>      <dbl>
 1    10        4       1     1       1     1      2         -1
 2    10        8       0     4       1     1      8          3
 3    10        2       1     9       1     1      2         -3
 4    10        6       1    23       1     1      2          1
 5    10        4       1     5       1     2      3         -1
 6    10        8       0     7       1     2      5          3
 7    10        6       1    10       1     2      3          1
 8    10        2       1    19       1     2      1         -3
 9    10        2       1     9       1     3      2         -3
10    10        6       0    16       1     3      5          1
# … with 82 more rows
…
Effekte auf der Odds/Wahrscheinlichkeitsskala

samples_set_size <- m_recall %>% 
  gather_draws(b_c_set_size) %>% 
  ungroup() %>% 
  select(logodds = .value)

samples_set_size

# A tibble: 4,000 x 1
   logodds
     <dbl>
 1  -0.285
 2  -0.253
 3  -0.135
 4  -0.196
 5  -0.106
 6  -0.263
 7  -0.154
 8  -0.166
 9  -0.102
10  -0.245
# … with 3,990 more rows

samples_set_size <- samples_set_size %>% 
  mutate(odds = exp(logodds),
         prob = plogis(logodds))

samples_set_size

# A tibble: 4,000 x 3
   logodds  odds  prob
     <dbl> <dbl> <dbl>
 1  -0.285 0.752 0.429
 2  -0.253 0.776 0.437
 3  -0.135 0.874 0.466
 4  -0.196 0.822 0.451
 5  -0.106 0.899 0.474
 6  -0.263 0.769 0.435
 7  -0.154 0.857 0.462
 8  -0.166 0.847 0.459
 9  -0.102 0.903 0.474
10  -0.245 0.783 0.439
# … with 3,990 more rows
…
