neuroscicomplab: Datenanalyse
…
Wir haben insgesamt 63 Trials, welche nach unseren Kriterien Ausreisser sein könnten.

mentalchronometry_cleaned %>% 
  filter(trial_type != "OK")

# A tibble: 63 x 11
   subj  trial_number block    stimulus    RT handedness gender mean_C
   <fct>        <dbl> <fct>    <fct>    <dbl> <fct>      <fct>   <dbl>
 1 8552            11 goNoGo   square     690 Right      male     442.
 2 8552            14 goNoGo   square     727 Right      male     442.
 3 8552            17 goNoGo   square     697 Right      male     442.
 4 8552            18 goNoGo   square     720 Right      male     442.
 5 8551             3 reaction square     712 right      male     311.
 6 8550            16 reaction square      54 right      male     311.
 7 8550             4 goNoGo   circle    1010 right      male     442.
 8 8549            11 reaction square    2244 Righthand… male     311.
 9 8549            20 reaction square    1087 Righthand… male     311.
10 8549            12 goNoGo   square     778 Righthand… male     442.
# … with 53 more rows, and 3 more variables: sd_C <dbl>,
#   trial_type <fct>, trial <int>
…
df_speed_acc <- speed_acc %>% 
   # zwischen 180 ms and 3000 ms
  filter(rt > 0.18, rt < 3) %>% 
   # zu Character konvertieren (damit filter funktioniert)
  mutate(across(c(stim_cat, response), as.character)) %>% 
  # Korrekte Antworten
  filter(response != 'error', stim_cat == response) %>% 
  # wieder zu Factor konvertieren
  mutate(across(c(stim_cat, response), as_factor))

df_speed_acc

# A tibble: 27,936 x 9
   id    block condition stim  stim_cat frequency   response    rt
   <fct> <fct> <fct>     <fct> <fct>    <fct>       <fct>    <dbl>
 1 1     1     speed     5015  nonword  nw_low      nonword  0.7  
 2 1     1     speed     6481  nonword  nw_very_low nonword  0.46 
 3 1     1     speed     3305  word     very_low    word     0.455
 4 1     1     speed     4468  nonword  nw_high     nonword  0.773
 5 1     1     speed     1047  word     high        word     0.39 
 6 1     1     speed     5036  nonword  nw_low      nonword  0.603
 7 1     1     speed     1111  word     high        word     0.435
 8 1     1     speed     6561  nonword  nw_very_low nonword  0.524
 9 1     1     speed     1670  word     high        word     0.427
10 1     1     speed     6207  nonword  nw_very_low nonword  0.456
# … with 27,926 more rows, and 1 more variable: censor <lgl>
…
