neuroscicomplab: Übung 2: Lösung
…
se <- function(x) sd(x)/sqrt(length(x))

Aufgabe 2.1

Fassen Sie die Daten mit Mittelwert, Standardabweichung und Standardfehler pro Person pro Bedingung zusammen.

Mit diesem Code kann ich gleichzeitig 3 Funktionen anwenden (ist effizienter):

nback2 %>% 
  group_by(id, load) %>% 
  summarise(mean = mean(rt),
            sd = sd(rt), 
            se = se(rt))

# A tibble: 40 x 5
# Groups:   id [20]
   id    load   mean    sd    se
   <fct> <fct> <dbl> <dbl> <dbl>
 1 1     hi     933.  28.0  3.62
 2 1     lo     877.  26.8  3.46
 3 2     hi     842.  25.7  3.31
 4 2     lo     789.  24.3  3.14
 5 3     hi     936.  30.8  3.97
 6 3     lo     887.  27.0  3.48
 7 4     hi    1030.  20.9  2.70
 8 4     lo     976.  26.8  3.46
 9 5     hi     834.  23.1  2.99
10 5     lo     796.  24.7  3.19
# … with 30 more rows
…
